BLOCK MINPAR
   3   19

BLOCK SMINPUTS
   1    127.93149
   2    1.16639e-05
   3    0.119
   4    91.1876
   5    4.2
   6    172.9
   7    1.777

BLOCK GAUGE Q=  1000
   1    0.3615192
   2    0.63675145
   3    1.0406077

BLOCK HMIX Q=  1000
   1   1800
   3    246.21846
   10   1.51821326518
   101   -33591.160221
   102   12.9409548511
   103   245.878142171

BLOCK MSOFT Q=  1000
   21   -3242272.49931
   22   -2597727.50069
   1    1000
   2    1000
   3    1500

BLOCK YU Q=  1000
   1   1   1.26537063818e-05
   1   2    0
   1   3    0
   2   1    0
   2   2   0.00736215648675
   2   3    0
   3   1    0
   3   2    0
   3   3   0.995616631104

BLOCK YD Q=  1000
   1   1   0.000513625447828
   1   2    0
   1   3    0
   2   1    0
   2   2   0.0104910729793
   2   3    0
   3   1    0
   3   2    0
   3   3   0.456798801905

BLOCK YE Q=  1000
   1   1   5.58429920456e-05
   1   2    0
   1   3    0
   2   1    0
   2   2   0.011546559578
   2   3    0
   3   1    0
   3   2    0
   3   3   0.194194132434

BLOCK TU Q=  1000
   1   1    0
   1   2    0
   1   3    0
   2   1    0
   2   2    0
   2   3    0
   3   1    0
   3   2    0
   3   3   -1500

BLOCK TD Q=  1000
   1   1    0
   1   2    0
   1   3    0
   2   1    0
   2   2    0
   2   3    0
   3   1    0
   3   2    0
   3   3   0

BLOCK TE Q=  1000
   1   1    0
   1   2    0
   1   3    0
   2   1    0
   2   2    0
   2   3    0
   3   1    0
   3   2    0
   3   3    0

BLOCK MSQ2 Q=  1000
   1   1    1000000
   1   2    0
   1   3    0
   2   1    0
   2   2    1000000
   2   3    0
   3   1    0
   3   2    0
   3   3    1000000

BLOCK MSL2 Q=  1000
   1   1    1000000
   1   2    0
   1   3    0
   2   1    0
   2   2    1000000
   2   3    0
   3   1    0
   3   2    0
   3   3    1000000

BLOCK MSD2 Q=  1000
   1   1    1000000
   1   2    0
   1   3    0
   2   1    0
   2   2    1000000
   2   3    0
   3   1    0
   3   2    0
   3   3    1000000

BLOCK MSU2 Q=  1000
   1   1    1000000
   1   2    0
   1   3    0
   2   1    0
   2   2    1000000
   2   3    0
   3   1    0
   3   2    0
   3   3    1000000

BLOCK MSE2 Q=  1000
   1   1    1000000
   1   2    0
   1   3    0
   2   1    0
   2   2    1000000
   2   3    0
   3   1    0
   3   2    0
   3   3    1000000